---
http_interactions:
- request:
    method: get
    uri: https://api.pexels.com/v1/search?per_page=1&query=denver,co
    body:
      encoding: US-ASCII
      string: ''
    headers:
      User-Agent:
      - Faraday v1.8.0
      Authorization:
      - 563492ad6f91700001000001815865a9b0984af59d9f7a028768542e
      Accept-Encoding:
      - gzip;q=1.0,deflate;q=0.6,identity;q=0.3
      Accept:
      - "*/*"
  response:
    status:
      code: 200
      message: OK
    headers:
      Date:
      - Tue, 16 Nov 2021 06:49:55 GMT
      Content-Type:
      - application/json; charset=utf-8
      Content-Length:
      - '469'
      Connection:
      - keep-alive
      Cf-Ray:
      - 6aeec83639f824fa-SJC
      Cache-Control:
      - max-age=0, private, must-revalidate
      Set-Cookie:
      - __cf_bm=CV5PID.fwqd7TfcVzeud0myO_znvxMmQpGnuwsaEeCA-1637014625-0-AdzGMo2FSZHPHUNWAGmSCwfbDbycSIOJsOHE7Ckv/XRvXl+x21aTpu/FGGa17lKCPX9VBiyXBi2wDMzGh1gtcmE=;
        path=/; expires=Mon, 15-Nov-21 22:47:05 GMT; domain=.pexels.com; HttpOnly;
        Secure; SameSite=None
      - __cf_bm=UXeGKHN0SQf4c35VK9UmS1VpDDff7TiAByf1URXZXeQ-1637045395-0-AddH9L++hhwzSf6A99qmjKEGGnbYmmhm4/nuWKiRC1ph5/We4LqWb5Hyeqg/JCORUmu5gqZ2Og/lsiWSU2CaRKk=;
        path=/; expires=Tue, 16-Nov-21 07:19:55 GMT; domain=.pexels.com; HttpOnly;
        Secure; SameSite=None
      Vary:
      - Origin, Accept-Encoding
      Cf-Cache-Status:
      - DYNAMIC
      Alt-Svc:
      - h3=":443"; ma=86400, h3-29=":443"; ma=86400, h3-28=":443"; ma=86400, h3-27=":443";
        ma=86400
      Expect-Ct:
      - max-age=604800, report-uri="https://report-uri.cloudflare.com/cdn-cgi/beacon/expect-ct"
      X-Frame-Options:
      - SAMEORIGIN
      X-Ratelimit-Limit:
      - '20000'
      X-Ratelimit-Remaining:
      - '19996'
      X-Ratelimit-Reset:
      - '1639461070'
      X-Request-Id:
      - 1a785b39-fb66-4315-9937-13c5c080442b
      X-Runtime:
      - '0.111994'
      X-Server:
      - master
      X-Tyk-Cached-Response:
      - '1'
      Server:
      - cloudflare
    body:
      encoding: ASCII-8BIT
      string: '{"page":1,"per_page":1,"photos":[{"id":7109174,"width":3507,"height":5260,"url":"https://www.pexels.com/photo/man-in-suit-holding-a-tablet-communicating-with-a-woman-holding-documents-7109174/","photographer":"Tiger
        Lily","photographer_url":"https://www.pexels.com/@tiger-lily","photographer_id":2700415,"avg_color":"#9FA6AB","src":{"original":"https://images.pexels.com/photos/7109174/pexels-photo-7109174.jpeg","large2x":"https://images.pexels.com/photos/7109174/pexels-photo-7109174.jpeg?auto=compress\u0026cs=tinysrgb\u0026dpr=2\u0026h=650\u0026w=940","large":"https://images.pexels.com/photos/7109174/pexels-photo-7109174.jpeg?auto=compress\u0026cs=tinysrgb\u0026h=650\u0026w=940","medium":"https://images.pexels.com/photos/7109174/pexels-photo-7109174.jpeg?auto=compress\u0026cs=tinysrgb\u0026h=350","small":"https://images.pexels.com/photos/7109174/pexels-photo-7109174.jpeg?auto=compress\u0026cs=tinysrgb\u0026h=130","portrait":"https://images.pexels.com/photos/7109174/pexels-photo-7109174.jpeg?auto=compress\u0026cs=tinysrgb\u0026fit=crop\u0026h=1200\u0026w=800","landscape":"https://images.pexels.com/photos/7109174/pexels-photo-7109174.jpeg?auto=compress\u0026cs=tinysrgb\u0026fit=crop\u0026h=627\u0026w=1200","tiny":"https://images.pexels.com/photos/7109174/pexels-photo-7109174.jpeg?auto=compress\u0026cs=tinysrgb\u0026dpr=1\u0026fit=crop\u0026h=200\u0026w=280"},"liked":false}],"total_results":2652,"next_page":"https://api.pexels.com/v1/search/?page=2\u0026per_page=1\u0026query=denver%2Cco"}'
  recorded_at: Tue, 16 Nov 2021 06:49:55 GMT
recorded_with: VCR 6.0.0
